{
  "host": "host.docker.internal",
  "port": 9250,
  "queries": [
    {
      "object_name": "java.lang:type=Runtime",
      "attributes": [
        "Uptime",
        "StartTime"
      ],
      "object_alias": "Runtime"
    },
    {
      "object_name": "java.lang:type=GarbageCollector,name=*",
      "attributes": [
        "CollectionCount",
        "CollectionTime"
      ],
      "object_alias": "${type}.${name}"
    },
    {
      "object_name": "org.apache.flink.jobmanager.*:host=jobmanager",
      "attributes": [
        "Value"
      ]
    }
  ]
}